{
  "list": [
	{
	      "name": "Cryptic Crossword research",
	      "url": "https://gitlab.com/ungless/crossword-solver-iib/",
	      "desc": "Project for my undergraduate dissertation on solving cryptic crosswords using transformer language models"
	    },
    {
      "name": "Max's Latin Tools",
      "url": "https://latin.ungless.net",
      "desc": "One of the best Latin language and literature tools on the net."
    },
    {
          "name": "configs",
          "url": "https://gitlab.com/ungless/configs/",
          "desc": "My configs/dotfiles for Emacs, DWM, and other Linux-y things."
        },
    {   
          "name": "PrimeNumberGenerator",
          "url": "https://github.com/ungless/PrimeNumberGenerator/",
          "desc": "PrimeNumberGenerator generates primes using concurrent techniques, using network distribution to maximise sieve speed. See README for more information."
    }
  ]
}
